02 teaching the tidyverse
…
```r
staff_long <- staff %>%
  pivot_longer(
    cols = -faculty_type, 
    names_to = "year", 
    values_to = "percentage"
    ) %>%
  mutate(percentage = as.numeric(percentage))

staff_long
```

```
## # A tibble: 55 x 3
##    faculty_type              year  percentage
##    <chr>                     <chr>      <dbl>
##  1 Full-Time Tenured Faculty 1975        29  
##  2 Full-Time Tenured Faculty 1989        27.6
##  3 Full-Time Tenured Faculty 1993        25  
##  4 Full-Time Tenured Faculty 1995        24.8
##  5 Full-Time Tenured Faculty 1999        21.8
##  6 Full-Time Tenured Faculty 2001        20.3
##  7 Full-Time Tenured Faculty 2003        19.3
##  8 Full-Time Tenured Faculty 2005        17.8
##  9 Full-Time Tenured Faculty 2007        17.2
## 10 Full-Time Tenured Faculty 2009        16.8
## # … with 45 more rows
```
…
---

## Select with `where()`

.small[

```r
evals %>%
  select(where(is.factor))
```

```
## # A tibble: 463 x 9
##    rank         ethnicity    gender language cls_level cls_profs cls_credits  pic_outfit pic_color
##    <fct>        <fct>        <fct>  <fct>    <fct>     <fct>     <fct>        <fct>      <fct>    
##  1 tenure track minority     female english  upper     single    multi credit not formal color    
##  2 tenure track minority     female english  upper     single    multi credit not formal color    
##  3 tenure track minority     female english  upper     single    multi credit not formal color    
##  4 tenure track minority     female english  upper     single    multi credit not formal color    
##  5 tenured      not minority male   english  upper     multiple  multi credit not formal color    
##  6 tenured      not minority male   english  upper     multiple  multi credit not formal color    
##  7 tenured      not minority male   english  upper     multiple  multi credit not formal color    
##  8 tenured      not minority male   english  upper     single    multi credit not formal color    
##  9 tenured      not minority male   english  upper     single    multi credit not formal color    
## 10 tenured      not minority female english  upper     single    multi credit not formal color    
## # … with 453 more rows
```
]

---

## Solve with `across()`

.small[

```r
evals %>%
  mutate(across(where(is.factor), as.character))
```

```
## # A tibble: 463 x 23
##    course_id prof_id score rank       ethnicity   gender language   age cls_perc_eval cls_did_eval cls_students cls_level
##        <int>   <int> <dbl> <chr>      <chr>       <chr>  <chr>    <int>         <dbl>        <int>        <int> <chr>    
##  1         1       1   4.7 tenure tr… minority    female english     36          55.8           24           43 upper    
##  2         2       1   4.1 tenure tr… minority    female english     36          68.8           86          125 upper    
##  3         3       1   3.9 tenure tr… minority    female english     36          60.8           76          125 upper    
##  4         4       1   4.8 tenure tr… minority    female english     36          62.6           77          123 upper    
##  5         5       2   4.6 tenured    not minori… male   english     59          85             17           20 upper    
##  6         6       2   4.3 tenured    not minori… male   english     59          87.5           35           40 upper    
##  7         7       2   2.8 tenured    not minori… male   english     59          88.6           39           44 upper    
##  8         8       3   4.1 tenured    not minori… male   english     51         100             55           55 upper    
##  9         9       3   3.4 tenured    not minori… male   english     51          56.9          111          195 upper    
## 10        10       4   4.5 tenured    not minori… female english     40          87.0           40           46 upper    
## # … with 453 more rows, and 11 more variables: cls_profs <chr>, cls_credits <chr>, bty_f1lower <int>, bty_f1upper <int>,
## #   bty_f2upper <int>, bty_m1lower <int>, bty_m1upper <int>, bty_m2upper <int>, bty_avg <dbl>, pic_outfit <chr>,
## #   pic_color <chr>
```
…
## Rowwise operations

- Lots of discussion around how to do these in the tidyverse, see [github.com/jennybc/row-oriented-workflows](https://github.com/jennybc/row-oriented-workflows) for in depth coverage

- Sometimes you need to do a simple thing, e.g. taking average of repeated measures recorded in columns in a data frame

.small[

```r
evals %>% select(score, starts_with("bty_"))
```

```
## # A tibble: 463 x 8
##    score bty_f1lower bty_f1upper bty_f2upper bty_m1lower bty_m1upper bty_m2upper bty_avg
##    <dbl>       <int>       <int>       <int>       <int>       <int>       <int>   <dbl>
##  1   4.7           5           7           6           2           4           6    5   
##  2   4.1           5           7           6           2           4           6    5   
##  3   3.9           5           7           6           2           4           6    5   
##  4   4.8           5           7           6           2           4           6    5   
##  5   4.6           4           4           2           2           3           3    3   
##  6   4.3           4           4           2           2           3           3    3   
##  7   2.8           4           4           2           2           3           3    3   
##  8   4.1           5           2           5           2           3           3    3.33
##  9   3.4           5           2           5           2           3           3    3.33
## 10   4.5           2           5           4           3           3           2    3.17
## # … with 453 more rows
```
…
Again, with the dev version of dplyr for now...

.small[

```r
evals %>%
  rowwise() %>%
  mutate(bty_avg = mean(c(bty_f1lower, bty_f1upper, bty_f2upper, bty_m1lower, bty_m1upper, bty_m2upper))) %>%
  ungroup() %>%
  select(starts_with("bty_"))
```

```
## # A tibble: 463 x 7
##    bty_f1lower bty_f1upper bty_f2upper bty_m1lower bty_m1upper bty_m2upper bty_avg
##          <int>       <int>       <int>       <int>       <int>       <int>   <dbl>
##  1           5           7           6           2           4           6    5   
##  2           5           7           6           2           4           6    5   
##  3           5           7           6           2           4           6    5   
##  4           5           7           6           2           4           6    5   
##  5           4           4           2           2           3           3    3   
##  6           4           4           2           2           3           3    3   
##  7           4           4           2           2           3           3    3   
##  8           5           2           5           2           3           3    3.33
##  9           5           2           5           2           3           3    3.33
## 10           2           5           4           3           3           2    3.17
## # … with 453 more rows
```
…
      l$purchases <- NULL
      l$hobbies <- list(l$hobbies)
      
      cbind(as_tibble(l), purchases) %>% as_tibble()
    }
  )
```

---

## purr solution

```
## # A tibble: 620 x 16
##    gender first_name last_name   age phone_number hobbies SetID Number Theme Subtheme  Year Name  Pieces USPrice ImageURL
##    <chr>  <chr>      <chr>     <dbl> <chr>        <list>  <int> <chr>  <chr> <chr>    <int> <chr>  <int>   <dbl> <chr>   
##  1 Female Kimberly   Beckstead    24 216-555-2549 <chr [… 24701 76062  DC C… "Mighty…  2016 Robi…     77    9.99 http://…
##  2 Male   Neel       Garvin       35 819-555-3189 <chr [… 25626 70595  Ninj… "Rise o…  2016 Ultr…   1093  120.   http://…
##  3 Male   Neel       Garvin       35 819-555-3189 <chr [… 24665 21031  Arch… ""        2016 Burj…    333   40.0  http://…
##  4 Female Chelsea    Bouchard     41 <NA>         <chr [… 24695 31048  Crea… ""        2016 Lake…    368   30.0  http://…
##  5 Female Chelsea    Bouchard     41 <NA>         <chr [… 25626 70595  Ninj… "Rise o…  2016 Ultr…   1093  120.   http://…
##  6 Female Chelsea    Bouchard     41 <NA>         <chr [… 24721 10831  Duplo ""        2016 My F…     19    9.99 http://…
##  7 Female Bryanna    Welsh        19 <NA>         <chr [… 24797 75138  Star… "Episod…  2016 Hoth…    233   25.0  http://…
##  8 Female Bryanna    Welsh        19 <NA>         <chr [… 24701 76062  DC C… "Mighty…  2016 Robi…     77    9.99 http://…
##  9 Male   Caleb      Garcia-W…    37 907-555-9236 <chr [… 24730 41115  Frie… ""        2016 Emma…    108    9.99 http://…
## 10 Male   Caleb      Garcia-W…    37 907-555-9236 <chr [… 25611 21127  Mine… "Minifi…  2016 The …     NA  110.   http://…
## # … with 610 more rows, and 1 more variable: Quantity <dbl>
```
…
---

## tidyr solution - Step 1

.small[

```r
sales %>%
  tibble(sales = .)
```

```
## # A tibble: 250 x 1
##    sales           
##    <list>          
##  1 <named list [7]>
##  2 <named list [7]>
##  3 <named list [6]>
##  4 <named list [6]>
##  5 <named list [7]>
##  6 <named list [7]>
##  7 <named list [7]>
##  8 <named list [7]>
##  9 <named list [7]>
## 10 <named list [7]>
## # … with 240 more rows
```
…
---

## tidyr solution - Step 2

.small[

```r
sales %>%
  tibble(sales = .) %>%
  unnest_wider(sales)
```

```
## # A tibble: 250 x 7
##    gender first_name last_name        age phone_number hobbies   purchases 
##    <chr>  <chr>      <chr>          <dbl> <chr>        <list>    <list>    
##  1 Female Kimberly   Beckstead         24 216-555-2549 <chr [2]> <list [1]>
##  2 Male   Neel       Garvin            35 819-555-3189 <chr [2]> <list [2]>
##  3 Female Chelsea    Bouchard          41 <NA>         <chr [3]> <list [3]>
##  4 Female Bryanna    Welsh             19 <NA>         <chr [2]> <list [2]>
##  5 Male   Caleb      Garcia-Wideman    37 907-555-9236 <chr [3]> <list [2]>
##  6 Male   Chase      Fortenberry       19 205-555-3704 <chr [2]> <list [2]>
##  7 Male   Kevin      Cruz              20 947-555-7946 <chr [1]> <list [1]>
##  8 Male   Connor     Brown             36 516-555-4310 <chr [1]> <list [3]>
##  9 Female Toni       Borison           40 284-555-4560 <chr [2]> <list [2]>
## 10 Male   Daniel     Hurst             44 251-555-0845 <chr [1]> <list [2]>
## # … with 240 more rows
```
…
---

## tidyr solution - Step 3

.small[

```r
sales %>%
  tibble(sales = .) %>%
  unnest_wider(sales) %>%
  unnest_longer(purchases)
```

```
## # A tibble: 620 x 7
##    gender first_name last_name        age phone_number hobbies   purchases        
##    <chr>  <chr>      <chr>          <dbl> <chr>        <list>    <list>           
##  1 Female Kimberly   Beckstead         24 216-555-2549 <chr [2]> <named list [10]>
##  2 Male   Neel       Garvin            35 819-555-3189 <chr [2]> <named list [10]>
##  3 Male   Neel       Garvin            35 819-555-3189 <chr [2]> <named list [10]>
##  4 Female Chelsea    Bouchard          41 <NA>         <chr [3]> <named list [10]>
##  5 Female Chelsea    Bouchard          41 <NA>         <chr [3]> <named list [10]>
##  6 Female Chelsea    Bouchard          41 <NA>         <chr [3]> <named list [10]>
##  7 Female Bryanna    Welsh             19 <NA>         <chr [2]> <named list [10]>
##  8 Female Bryanna    Welsh             19 <NA>         <chr [2]> <named list [10]>
##  9 Male   Caleb      Garcia-Wideman    37 907-555-9236 <chr [3]> <named list [10]>
## 10 Male   Caleb      Garcia-Wideman    37 907-555-9236 <chr [3]> <named list [10]>
## # … with 610 more rows
```
…
---

## tidyr solution - Step 4

```r
sales %>%
  tibble(sales = .) %>%
  unnest_wider(sales) %>%
  unnest_longer(purchases) %>%
  unnest_wider(purchases)
```

```
## # A tibble: 620 x 16
##    gender first_name last_name   age phone_number hobbies SetID Number Theme Subtheme  Year Name  Pieces USPrice ImageURL
##    <chr>  <chr>      <chr>     <dbl> <chr>        <list>  <int> <chr>  <chr> <chr>    <int> <chr>  <int>   <dbl> <chr>   
##  1 Female Kimberly   Beckstead    24 216-555-2549 <chr [… 24701 76062  DC C… "Mighty…  2016 Robi…     77    9.99 http://…
##  2 Male   Neel       Garvin       35 819-555-3189 <chr [… 25626 70595  Ninj… "Rise o…  2016 Ultr…   1093  120.   http://…
##  3 Male   Neel       Garvin       35 819-555-3189 <chr [… 24665 21031  Arch… ""        2016 Burj…    333   40.0  http://…
##  4 Female Chelsea    Bouchard     41 <NA>         <chr [… 24695 31048  Crea… ""        2016 Lake…    368   30.0  http://…
##  5 Female Chelsea    Bouchard     41 <NA>         <chr [… 25626 70595  Ninj… "Rise o…  2016 Ultr…   1093  120.   http://…
##  6 Female Chelsea    Bouchard     41 <NA>         <chr [… 24721 10831  Duplo ""        2016 My F…     19    9.99 http://…
##  7 Female Bryanna    Welsh        19 <NA>         <chr [… 24797 75138  Star… "Episod…  2016 Hoth…    233   25.0  http://…
##  8 Female Bryanna    Welsh        19 <NA>         <chr [… 24701 76062  DC C… "Mighty…  2016 Robi…     77    9.99 http://…
##  9 Male   Caleb      Garcia-W…    37 907-555-9236 <chr [… 24730 41115  Frie… ""        2016 Emma…    108    9.99 http://…
## 10 Male   Caleb      Garcia-W…    37 907-555-9236 <chr [… 25611 21127  Mine… "Minifi…  2016 The …     NA  110.   http://…
## # … with 610 more rows, and 1 more variable: Quantity <dbl>
```
…
```
## Using `unnest_wider(sales)`; elements have 6 names in common
```

```
## Using `unnest_longer(purchases)`; no element has names
```

```
## Using `unnest_wider(purchases)`; elements have 10 names in common
```

```
## # A tibble: 620 x 16
##    gender first_name last_name   age phone_number hobbies SetID Number Theme Subtheme  Year Name  Pieces USPrice ImageURL
##    <chr>  <chr>      <chr>     <dbl> <chr>        <list>  <int> <chr>  <chr> <chr>    <int> <chr>  <int>   <dbl> <chr>   
##  1 Female Kimberly   Beckstead    24 216-555-2549 <chr [… 24701 76062  DC C… "Mighty…  2016 Robi…     77    9.99 http://…
##  2 Male   Neel       Garvin       35 819-555-3189 <chr [… 25626 70595  Ninj… "Rise o…  2016 Ultr…   1093  120.   http://…
##  3 Male   Neel       Garvin       35 819-555-3189 <chr [… 24665 21031  Arch… ""        2016 Burj…    333   40.0  http://…
##  4 Female Chelsea    Bouchard     41 <NA>         <chr [… 24695 31048  Crea… ""        2016 Lake…    368   30.0  http://…
##  5 Female Chelsea    Bouchard     41 <NA>         <chr [… 25626 70595  Ninj… "Rise o…  2016 Ultr…   1093  120.   http://…
##  6 Female Chelsea    Bouchard     41 <NA>         <chr [… 24721 10831  Duplo ""        2016 My F…     19    9.99 http://…
##  7 Female Bryanna    Welsh        19 <NA>         <chr [… 24797 75138  Star… "Episod…  2016 Hoth…    233   25.0  http://…
##  8 Female Bryanna    Welsh        19 <NA>         <chr [… 24701 76062  DC C… "Mighty…  2016 Robi…     77    9.99 http://…
##  9 Male   Caleb      Garcia-W…    37 907-555-9236 <chr [… 24730 41115  Frie… ""        2016 Emma…    108    9.99 http://…
## 10 Male   Caleb      Garcia-W…    37 907-555-9236 <chr [… 25611 21127  Mine… "Minifi…  2016 The …     NA  110.   http://…
## # … with 610 more rows, and 1 more variable: Quantity <dbl>
```
…
